{
    "editCardText": "body > div > div > div > div > textarea",
    "editBoxButtonSave": "body > div > div > div > div > button:nth-child(1)",
    "editBoxButtonDelete": "body > div > div > div > div > button:nth-child(2)"
}